accounts.firefox.com:HSTS	0	17982	1569272481317,1,1,2
www.google-analytics.com:HSTS	1	17983	1564606880672,1,1,2
snippets.cdn.mozilla.net:HSTS	0	17983	1585320928225,1,0,2
classify-client.services.mozilla.com:HSTS	1	17983	1585321192376,1,0,2
customer.api.drift.com:HSTS	1	17983	1585320947240,1,1,2
cdnjs.cloudflare.com:HSTS	1	17983	1569564944995,1,1,2
gitlab.com:HSTS	1	17983	1585325744616,1,0,2
metrics.api.drift.com:HSTS	1	17983	1585320951737,1,1,2
firefox.settings.services.mozilla.com:HSTS	1	17983	1585321194187,1,0,2
services.addons.mozilla.org:HSTS	0	17982	1585256980606,1,0,2
tiles.services.mozilla.com:HSTS	1	17983	1585320965539,1,0,2
www.mozilla.org:HSTS	0	17982	1585256475763,1,0,2
about.gitlab.com:HSTS	1	17983	1585320944555,1,1,2
assets.gitlab-static.net:HSTS	1	17983	1585325744766,1,0,2
services.addons.mozilla.org:HPKP	0	17982	1558904980607,1,1,WoiWRyIOVNa9ihaBciRSC7XHjliYS9VwUGOIud4PB18=r/mIkG3eEpVdm+u/ko/cwxzOMo1bk4TyHIlByibiA5E=
avatars2.githubusercontent.com:HSTS	0	17983	1585342821939,1,0,2
versioncheck-bg.addons.mozilla.org:HSTS	0	17982	1553721279265,1,0,2
fonts.googleapis.com:HSTS	1	17983	1585320995313,1,0,2
avatars1.githubusercontent.com:HSTS	0	17983	1585342995087,1,0,2
api.github.com:HSTS	0	17983	1585321396660,1,1,2
github.com:HSTS	0	17983	1585321395546,1,1,2
git-scm.com:HSTS	0	17982	1585257586823,1,0,2
event.api.drift.com:HSTS	1	17983	1585320947535,1,1,2
classroom.google.com:HSTS	1	17983	1616857231971,1,1,2
normandy.cdn.mozilla.net:HSTS	1	17983	1585321193801,1,0,2
blobcomments-pa.clients6.google.com:HSTS	0	17982	1564607868985,1,1,2
www.paypal.com:HSTS	0	17983	1616857767340,1,0,2
js.driftt.com:HSTS	1	17983	1585320946158,1,1,2
connect.facebook.net:HSTS	1	17983	1585320943427,1,1,2
raw.githubusercontent.com:HSTS	0	17983	1585321396035,1,0,2
versioncheck-bg.addons.mozilla.org:HPKP	0	17982	1558904979267,1,1,WoiWRyIOVNa9ihaBciRSC7XHjliYS9VwUGOIud4PB18=r/mIkG3eEpVdm+u/ko/cwxzOMo1bk4TyHIlByibiA5E=
apis.google.com:HSTS	1	17983	1585321038211,1,0,2
youtube.com:HSTS	0	17983	1585320965745,1,1,2
docs.google.com:HSTS	1	17983	1585320940871,1,1,2
aus5.mozilla.org:HSTS	0	17982	1585256980059,1,0,2
blocklists.settings.services.mozilla.com:HSTS	0	17982	1585257096364,1,0,2
www.google.com:HSTS	1	17983	1585320961435,1,0,2
collector.githubapp.com:HSTS	0	17983	1585321396897,1,0,2
www.google.com^firstPartyDomain=google.search.suggestions.mozilla:HSTS	1	17983	1585321002809,1,0,2
avatars3.githubusercontent.com:HSTS	0	17983	1585342828031,1,0,2
shavar.services.mozilla.com^firstPartyDomain=safebrowsing.86868755-6b82-4842-b301-72671a0db32e.mozilla:HSTS	1	17983	1585324535677,1,1,2
ogs.google.com:HSTS	1	17983	1585320996851,1,0,2
signaler-pa.clients6.google.com:HSTS	0	17982	1564607872754,1,1,2
drive.google.com:HSTS	1	17983	1585321037873,1,0,2
mozilla.org:HSTS	0	17982	1585256476913,1,0,2
www.google.com.br:HSTS	0	17982	1585257155404,1,0,2
avatars0.githubusercontent.com:HSTS	0	17983	1585342821902,1,0,2
www.youtube.com:HSTS	0	17982	1585257392291,1,0,2
accounts.google.com:HSTS	1	17983	1585321243476,1,1,2
